<?xml version="1.0" encoding="utf-8"?>
<!-- Generator: Adobe Illustrator 21.0.0, SVG Export Plug-In . SVG Version: 6.00 Build 0)  -->
<svg version="1.1" id="Слой_1" xmlns="http://www.w3.org/2000/svg" xmlns:xlink="http://www.w3.org/1999/xlink" x="0px" y="0px"
	 viewBox="0 0 33.6 21.3" style="enable-background:new 0 0 33.6 21.3;" xml:space="preserve">
<style type="text/css">
	.st0{fill:#7A8191;}
</style>
<title>Group 8</title>
<desc>Created with Sketch.</desc>
<g>
	<path class="st0" d="M22.8,20.7c-5.5,0-10-4.5-10-10c0-5.5,4.5-10,10-10v2c-4.4,0-8,3.6-8,8s3.6,8,8,8s8-3.6,8-8
		c0-2.1-0.8-4.1-2.3-5.6l1.4-1.4c1.9,1.9,2.9,4.4,2.9,7C32.8,16.2,28.3,20.7,22.8,20.7z"/>
	<circle id="Oval-5" class="st0" cx="22.8" cy="10.7" r="2"/>
	<path id="Rectangle-20" class="st0" d="M22.8,4.7L22.8,4.7c0.6,0,1,0.4,1,1v4c0,0.6-0.4,1-1,1l0,0c-0.6,0-1-0.4-1-1v-4
		C21.8,5.1,22.2,4.7,22.8,4.7z"/>
	<path id="Rectangle-20-Copy" class="st0" d="M27.4,13.7L27.4,13.7c-0.3,0.5-0.9,0.6-1.4,0.4l-2.6-1.5c-0.5-0.3-0.6-0.9-0.4-1.4l0,0
		c0.3-0.5,0.9-0.6,1.4-0.4l2.6,1.5C27.5,12.6,27.7,13.2,27.4,13.7z"/>
	<rect id="Rectangle-21" x="5.8" y="5.7" class="st0" width="5" height="2"/>
	<rect id="Rectangle-21-Copy" x="0.8" y="9.7" class="st0" width="10" height="2"/>
	<rect id="Rectangle-21-Copy-2" x="3.8" y="13.7" class="st0" width="7" height="2"/>
</g>
</svg>
