<?xml version="1.0" encoding="utf-8"?>
<!-- Generator: Adobe Illustrator 21.0.0, SVG Export Plug-In . SVG Version: 6.00 Build 0)  -->
<svg version="1.1" id="Слой_1" xmlns="http://www.w3.org/2000/svg" xmlns:xlink="http://www.w3.org/1999/xlink" x="0px" y="0px"
	 viewBox="0 0 19 19" style="enable-background:new 0 0 19 19;" xml:space="preserve">
<style type="text/css">
	.st0{fill:#7A8191;}
</style>
<title>Group</title>
<desc>Created with Sketch.</desc>
<g>
	<path class="st0" d="M5,0H3v11.1c-1.7,0.4-3,2-3,3.9c0,2.2,1.8,4,4,4s4-1.8,4-4c0-1.9-1.3-3.4-3-3.9V6h2V4H5V3h3V1H5V0z M6,15
		c0,1.1-0.9,2-2,2s-2-0.9-2-2s0.9-2,2-2S6,13.9,6,15z"/>
	<ellipse transform="matrix(0.7771 -0.6293 0.6293 0.7771 -1.4015 12.5217)" class="st0" cx="17" cy="8.2" rx="1.9" ry="2.1"/>
	<ellipse class="st0" cx="13.1" cy="1.9" rx="2.1" ry="1.9"/>
	<ellipse transform="matrix(0.2249 -0.9744 0.9744 0.2249 -3.7263 25.0783)" class="st0" cx="13.9" cy="14.9" rx="2.1" ry="1.9"/>
</g>
</svg>
